{
    "name": "LeapMotion.Modules.InteractionEngine.Utility.Editor",
    "references": [
        "GUID:7f9e375fa959d5449b479874717961ca",
        "GUID:c38c090206230d6408b0e15f12d7a6aa"
    ],
    "includePlatforms": [
        "Editor"
    ],
    "excludePlatforms": [],
    "allowUnsafeCode": false,
    "overrideReferences": false,
    "precompiledReferences": [],
    "autoReferenced": true,
    "defineConstraints": [],
    "versionDefines": []
}