%YAML 1.1
%TAG !u! tag:unity3d.com,2011:
--- !u!21 &2100000
Material:
  serializedVersion: 6
  m_ObjectHideFlags: 0
  m_CorrespondingSourceObject: {fileID: 0}
  m_PrefabInstance: {fileID: 0}
  m_PrefabAsset: {fileID: 0}
  m_Name: M_ScannerInterior
  m_Shader: {fileID: 4800000, guid: 2c1e22eb98a97514895b14de8ba21f73, type: 3}
  m_ShaderKeywords: 
  m_LightmapFlags: 4
  m_EnableInstancingVariants: 0
  m_DoubleSidedGI: 0
  m_CustomRenderQueue: -1
  stringTagMap: {}
  disabledShaderPasses: []
  m_SavedProperties:
    serializedVersion: 3
    m_TexEnvs:
    - _BumpMap:
        m_Texture: {fileID: 0}
        m_Scale: {x: 1, y: 1}
        m_Offset: {x: 0, y: 0}
    - _DetailAlbedoMap:
        m_Texture: {fileID: 0}
        m_Scale: {x: 1, y: 1}
        m_Offset: {x: 0, y: 0}
    - _DetailMask:
        m_Texture: {fileID: 0}
        m_Scale: {x: 1, y: 1}
        m_Offset: {x: 0, y: 0}
    - _DetailNormalMap:
        m_Texture: {fileID: 0}
        m_Scale: {x: 1, y: 1}
        m_Offset: {x: 0, y: 0}
    - _EmissionMap:
        m_Texture: {fileID: 0}
        m_Scale: {x: 1, y: 1}
        m_Offset: {x: 0, y: 0}
    - _GradientCells:
        m_Texture: {fileID: 2800000, guid: b9c4358eb8c4e9e4396959d24c50831c, type: 3}
        m_Scale: {x: 1, y: 1}
        m_Offset: {x: 0, y: 0}
    - _MainTex:
        m_Texture: {fileID: 0}
        m_Scale: {x: 1, y: 1}
        m_Offset: {x: 0, y: 0}
    - _MetallicGlossMap:
        m_Texture: {fileID: 0}
        m_Scale: {x: 1, y: 1}
        m_Offset: {x: 0, y: 0}
    - _OcclusionMap:
        m_Texture: {fileID: 0}
        m_Scale: {x: 1, y: 1}
        m_Offset: {x: 0, y: 0}
    - _ParallaxMap:
        m_Texture: {fileID: 0}
        m_Scale: {x: 1, y: 1}
        m_Offset: {x: 0, y: 0}
    - _Texture0:
        m_Texture: {fileID: 2800000, guid: b9c4358eb8c4e9e4396959d24c50831c, type: 3}
        m_Scale: {x: 1, y: 1}
        m_Offset: {x: 0, y: 0}
    - _texcoord:
        m_Texture: {fileID: 0}
        m_Scale: {x: 1, y: 1}
        m_Offset: {x: 0, y: 0}
    m_Floats:
    - _BumpScale: 1
    - _C: 0
    - _CoreInMax: 0.26
    - _CoreInMin: 0.77
    - _CoreOutMax: 1
    - _CoreOutMin: 0
    - _Cutoff: 0.5
    - _DetailNormalMapScale: 1
    - _DstBlend: 0
    - _Float0: 0.58
    - _Float1: 1.13
    - _Float2: -0.05
    - _Float3: 0.66
    - _Float4: 0
    - _Float5: 0
    - _Float6: 0
    - _Float7: 0
    - _GlossMapScale: 1
    - _Glossiness: 0.5
    - _GlossyReflections: 1
    - _InMax: 1.76
    - _InMin: 0
    - _MI: 0
    - _Metallic: 0
    - _Mode: 0
    - _Na: 0
    - _NarrowInMax: 0.78
    - _NarrowInMin: 0.28
    - _NarrowOutMax: 1
    - _NarrowOutMin: 0
    - _OcclusionStrength: 1
    - _OutMax: 1
    - _OutMin: 0
    - _Parallax: 0.02
    - _SmoothnessTextureChannel: 0
    - _SpecularHighlights: 1
    - _SrcBlend: 1
    - _UVSec: 0
    - _WideInMax: 0.23
    - _WideInMin: 0
    - _WideOutMax: 1
    - _WideOutMin: 0
    - _ZWrite: 1
    - __dirty: 1
    m_Colors:
    - _Color: {r: 1, g: 1, b: 1, a: 1}
    - _Color0: {r: 0, g: 0.2532153, b: 1, a: 1}
    - _Color1: {r: 0, g: 1, b: 0.9909525, a: 0}
    - _Color2: {r: 0, g: 0, b: 0, a: 0}
    - _ColorCore: {r: 0.8066038, g: 0.96899754, b: 1, a: 0}
    - _ColorNarrow: {r: 0, g: 0.3390677, b: 0.4433962, a: 0}
    - _ColorWide: {r: 0, g: 0.07974373, b: 0.3018868, a: 0}
    - _EmissionColor: {r: 0, g: 0, b: 0, a: 1}
