%YAML 1.1
%TAG !u! tag:unity3d.com,2011:
--- !u!114 &11400000
MonoBehaviour:
  m_ObjectHideFlags: 0
  m_CorrespondingSourceObject: {fileID: 0}
  m_PrefabInstance: {fileID: 0}
  m_PrefabAsset: {fileID: 0}
  m_GameObject: {fileID: 0}
  m_Enabled: 1
  m_EditorHideFlags: 0
  m_Script: {fileID: 11500000, guid: 1f18fec9b55c4f818e284af454161962, type: 3}
  m_Name: New MixedRealitySpeechCommandsProfile
  m_EditorClassIdentifier: 
  isCustomProfile: 1
  startBehavior: 0
  recognitionConfidenceLevel: 1
  speechCommands:
  - localizationKey: 
    keyword: Move Forward
    keyCode: 273
    action:
      id: 2
      description: Menu
      axisConstraint: 2
  - localizationKey: 
    keyword: Move Right
    keyCode: 275
    action:
      id: 1
      description: Select
      axisConstraint: 2
  - localizationKey: 
    keyword: Move Backward
    keyCode: 274
    action:
      id: 0
      description: Select
      axisConstraint: 2
  - localizationKey: 
    keyword: Move Left
    keyCode: 276
    action:
      id: 0
      description: Select
      axisConstraint: 2
  - localizationKey: 
    keyword: Move Up
    keyCode: 280
    action:
      id: 0
      description: Select
      axisConstraint: 2
  - localizationKey: 
    keyword: Move Down
    keyCode: 281
    action:
      id: 0
      description: Select
      axisConstraint: 2
  - localizationKey: 
    keyword: Rotate Right
    keyCode: 46
    action:
      id: 0
      description: Select
      axisConstraint: 2
  - localizationKey: 
    keyword: Rotate Left
    keyCode: 44
    action:
      id: 0
      description: Select
      axisConstraint: 2
  - localizationKey: 
    keyword: Start Tracking
    keyCode: 0
    action:
      id: 0
      description: Select
      axisConstraint: 2
  - localizationKey: 
    keyword: Stop Tracking
    keyCode: 0
    action:
      id: 0
      description: Select
      axisConstraint: 2
  - localizationKey: 
    keyword: Hide Platform
    keyCode: 0
    action:
      id: 0
      description: Select
      axisConstraint: 2
  - localizationKey: 
    keyword: Show Platform
    keyCode: 0
    action:
      id: 0
      description: Select
      axisConstraint: 2
