{
    "name": "LeapMotion.Core.Attributes.Editor",
    "references": [
        "GUID:374b1d8271ddae84d92fe85fd9ad1aed",
        "GUID:30caafe7e9ffd114b9b15ad61884c935"
    ],
    "includePlatforms": [
        "Editor"
    ],
    "excludePlatforms": [],
    "allowUnsafeCode": false,
    "overrideReferences": false,
    "precompiledReferences": [],
    "autoReferenced": true,
    "defineConstraints": [],
    "versionDefines": []
}