{
    "name": "Emerge.Core.EmergeObjects.PropertyDrawers.Editor",
    "references": [
        "GUID:76ba511d87d930142b72290886365de1",
        "GUID:5be2df80f624658489e6eb45004141cf",
        "GUID:9c1c7947b8c12374c85ccbb0d9111f39"
    ],
    "includePlatforms": [
        "Editor"
    ],
    "excludePlatforms": [],
    "allowUnsafeCode": false,
    "overrideReferences": false,
    "precompiledReferences": [],
    "autoReferenced": true,
    "defineConstraints": [],
    "versionDefines": []
}