{
    "name": "LeapMotion.Modules.InteractionEngine.Internal.Editor",
    "references": [
        "GUID:30caafe7e9ffd114b9b15ad61884c935",
        "GUID:c38c090206230d6408b0e15f12d7a6aa",
        "GUID:00e2cc967ccd5bf46b33859a8b030fec"
    ],
    "includePlatforms": [
        "Editor"
    ],
    "excludePlatforms": [],
    "allowUnsafeCode": false,
    "overrideReferences": false,
    "precompiledReferences": [],
    "autoReferenced": true,
    "defineConstraints": [],
    "versionDefines": []
}