%YAML 1.1
%TAG !u! tag:unity3d.com,2011:
--- !u!21 &2100000
Material:
  serializedVersion: 6
  m_ObjectHideFlags: 0
  m_CorrespondingSourceObject: {fileID: 0}
  m_PrefabInstance: {fileID: 0}
  m_PrefabAsset: {fileID: 0}
  m_Name: mat_blank_tile
  m_Shader: {fileID: 4800000, guid: 0e9d5a909a1f7e84882a534d0d11e49f, type: 3}
  m_ShaderKeywords: _BORDER_LIGHT_USES_HOVER_COLOR _DIRECTIONAL_LIGHT _EMISSION _REFLECTIONS
    _SPECULAR_HIGHLIGHTS
  m_LightmapFlags: 1
  m_EnableInstancingVariants: 0
  m_DoubleSidedGI: 0
  m_CustomRenderQueue: -1
  stringTagMap: {}
  disabledShaderPasses: []
  m_SavedProperties:
    serializedVersion: 3
    m_TexEnvs:
    - _BumpMap:
        m_Texture: {fileID: 0}
        m_Scale: {x: 1, y: 1}
        m_Offset: {x: 0, y: 0}
    - _ChannelMap:
        m_Texture: {fileID: 0}
        m_Scale: {x: 1, y: 1}
        m_Offset: {x: 0, y: 0}
    - _DetailAlbedoMap:
        m_Texture: {fileID: 0}
        m_Scale: {x: 1, y: 1}
        m_Offset: {x: 0, y: 0}
    - _DetailMask:
        m_Texture: {fileID: 0}
        m_Scale: {x: 1, y: 1}
        m_Offset: {x: 0, y: 0}
    - _DetailNormalMap:
        m_Texture: {fileID: 0}
        m_Scale: {x: 1, y: 1}
        m_Offset: {x: 0, y: 0}
    - _EmissionMap:
        m_Texture: {fileID: 0}
        m_Scale: {x: 1, y: 1}
        m_Offset: {x: 0, y: 0}
    - _MainTex:
        m_Texture: {fileID: 2800000, guid: 88dc5d12c5821bf4d99edd588f6c19e6, type: 3}
        m_Scale: {x: 1, y: 1}
        m_Offset: {x: 0, y: 0}
    - _MetallicGlossMap:
        m_Texture: {fileID: 0}
        m_Scale: {x: 1, y: 1}
        m_Offset: {x: 0, y: 0}
    - _NormalMap:
        m_Texture: {fileID: 0}
        m_Scale: {x: 1, y: 1}
        m_Offset: {x: 0, y: 0}
    - _OcclusionMap:
        m_Texture: {fileID: 0}
        m_Scale: {x: 1, y: 1}
        m_Offset: {x: 0, y: 0}
    - _ParallaxMap:
        m_Texture: {fileID: 0}
        m_Scale: {x: 1, y: 1}
        m_Offset: {x: 0, y: 0}
    - _SpecGlossMap:
        m_Texture: {fileID: 0}
        m_Scale: {x: 1, y: 1}
        m_Offset: {x: 0, y: 0}
    m_Floats:
    - _AlbedoAlphaMode: 2
    - _BlendOp: 0
    - _BorderLight: 0
    - _BorderLightOpaque: 0
    - _BorderLightUsesHoverColor: 1
    - _BorderMinValue: 0.1
    - _BorderWidth: 0.1
    - _BumpScale: 1
    - _ClippingPlane: 0
    - _ClippingPlaneBorder: 0
    - _ClippingPlaneBorderWidth: 0.025
    - _ColorWriteMask: 15
    - _CullMode: 0
    - _CustomMode: 2
    - _Cutoff: 0.5
    - _DetailNormalMapScale: 1
    - _DirectionalLight: 1
    - _DstBlend: 0
    - _EdgeSmoothingValue: 0.002
    - _EnableChannelMap: 0
    - _EnableEmission: 1
    - _EnableHoverColorOpaqueOverride: 0
    - _EnableHoverColorOverride: 0
    - _EnableNormalMap: 0
    - _EnvironmentColorIntensity: 0.5
    - _EnvironmentColorThreshold: 1.5
    - _EnvironmentColoring: 0
    - _FadeBeginDistance: 0.85
    - _FadeCompleteDistance: 0.5
    - _GlossMapScale: 1
    - _Glossiness: 1
    - _GlossyReflections: 1
    - _HoverLight: 0
    - _HoverLightOpaque: 0
    - _InnerGlow: 0
    - _InstancedColor: 0
    - _Metallic: 0.841
    - _Mode: 0
    - _NearPlaneFade: 0
    - _OcclusionStrength: 1
    - _Parallax: 0.02
    - _Reflections: 1
    - _Refraction: 0
    - _RefractiveIndex: 0
    - _RenderQueueOverride: -1
    - _RimLight: 0
    - _RimPower: 0.25
    - _RoundCornerMargin: 0.01
    - _RoundCornerRadius: 0.25
    - _RoundCorners: 0
    - _Smoothness: 0.5
    - _SmoothnessTextureChannel: 0
    - _SpecularHighlights: 1
    - _SrcBlend: 1
    - _Stencil: 0
    - _StencilComparison: 0
    - _StencilOperation: 0
    - _StencilReference: 0
    - _UVSec: 0
    - _UseAoMap: 0
    - _UseColorMap: 1
    - _UseEmissiveMap: 0
    - _UseMetallicMap: 0
    - _UseNormalMap: 0
    - _UseRoughnessMap: 0
    - _ZTest: 4
    - _ZWrite: 1
    m_Colors:
    - _ClipPlane: {r: 0, g: 1, b: 0, a: 0}
    - _ClippingPlaneBorderColor: {r: 1, g: 0.2, b: 0, a: 1}
    - _Color: {r: 1, g: 1, b: 1, a: 1}
    - _EmissionColor: {r: 0, g: 0, b: 0, a: 1}
    - _EmissiveColor: {r: 0, g: 0, b: 0, a: 1}
    - _EnvironmentColorX: {r: 1, g: 0, b: 0, a: 1}
    - _EnvironmentColorY: {r: 0, g: 1, b: 0, a: 1}
    - _EnvironmentColorZ: {r: 0, g: 0, b: 1, a: 1}
    - _HoverColorOpaqueOverride: {r: 1, g: 1, b: 1, a: 1}
    - _HoverColorOverride: {r: 1, g: 1, b: 1, a: 1}
    - _InnerGlowColor: {r: 1, g: 1, b: 1, a: 0.75}
    - _RimColor: {r: 0.5, g: 0.5, b: 0.5, a: 1}
    - _SpecColor: {r: 0.2, g: 0.2, b: 0.2, a: 1}
    - _UvOffset: {r: 0, g: 0, b: 0, a: 0}
    - _UvTiling: {r: 1, g: 1, b: 0, a: 0}
