{
    "name": "Emerge.Core.Shared.Core.Editor",
    "references": [
        "GUID:76ba511d87d930142b72290886365de1"
    ],
    "includePlatforms": [
        "Editor"
    ],
    "excludePlatforms": [],
    "allowUnsafeCode": false,
    "overrideReferences": false,
    "precompiledReferences": [],
    "autoReferenced": true,
    "defineConstraints": [],
    "versionDefines": []
}