%YAML 1.1
%TAG !u! tag:unity3d.com,2011:
--- !u!1045 &1
EditorBuildSettings:
  m_ObjectHideFlags: 0
  serializedVersion: 2
  m_Scenes:
  - enabled: 0
    path: Assets/Scenes/SampleScene.unity
    guid: d1c3109bdb54ad54c8a2b2838528e640
  - enabled: 0
    path: Assets/00_Common/Scenes/Test3_PictureRecognition.unity
    guid: 6c2ba8c22b3363945b6bf3392fa22ed4
  - enabled: 0
    path: Assets/00_Common/Scenes/Test4_Labyrinth.unity
    guid: da86f64975305fb4ba882794016640db
  - enabled: 1
    path: Assets/00_Common/Scenes/Level Generator Test.unity
    guid: ad711495e2e2d6f48bb8f4356d201c65
  - enabled: 0
    path: Assets/Emerge/Examples/09_a_OculusQuest.unity
    guid: d0c7e83a88732324b8cad06a2b97ccbd
  m_configObjects:
    Unity.XR.Oculus.Settings: {fileID: 11400000, guid: 254779c1bc3fc024c966b42001db7425,
      type: 2}
    com.unity.xr.management.loader_settings: {fileID: 11400000, guid: d1322d38427d47f40b8954e475e93db6,
      type: 2}
