{
    "name": "Leap.Core.Animation.Editor",
    "references": [
        "GUID:30caafe7e9ffd114b9b15ad61884c935",
        "GUID:7f9e375fa959d5449b479874717961ca",
        "GUID:76f1028516b37c549a49fa29d3f2a67f"
    ],
    "includePlatforms": [
        "Editor"
    ],
    "excludePlatforms": [],
    "allowUnsafeCode": false,
    "overrideReferences": false,
    "precompiledReferences": [],
    "autoReferenced": true,
    "defineConstraints": [],
    "versionDefines": []
}