{
    "name": "LeapMotion.Modules.InteractionEngine.UI.Editor",
    "references": [
        "GUID:7f9e375fa959d5449b479874717961ca",
        "GUID:30caafe7e9ffd114b9b15ad61884c935",
        "GUID:690317d2ba35f5840a1e7a3792818ede",
        "GUID:c38c090206230d6408b0e15f12d7a6aa"
    ],
    "includePlatforms": [
        "Editor"
    ],
    "excludePlatforms": [],
    "allowUnsafeCode": false,
    "overrideReferences": false,
    "precompiledReferences": [],
    "autoReferenced": true,
    "defineConstraints": [],
    "versionDefines": []
}