{
    "name": "Leap.Core.Attachments.Editor",
    "references": [
        "GUID:30caafe7e9ffd114b9b15ad61884c935",
        "GUID:7f9e375fa959d5449b479874717961ca"
    ],
    "includePlatforms": [
        "Editor"
    ],
    "excludePlatforms": [],
    "allowUnsafeCode": false,
    "overrideReferences": false,
    "precompiledReferences": [],
    "autoReferenced": true,
    "defineConstraints": [],
    "versionDefines": []
}